Email Address,First Name,Last Name,Member Type,Category,Company,BOD,CSE,City,State,WLTDC,BPPC,TLC,Title,Regional Area,Past Attendee,Regional Team,Executive Comittee,Past Chairman,Update Member Record Link,Congressman1,Congressman2,CBlink,rep1,rep2,link1,link2,number_districts,rep3,re4,2016 EC,Chapter,Phone,MEMBER_RATING,OPTIN_TIME,OPTIN_IP,CONFIRM_TIME,CONFIRM_IP,LATITUDE,LONGITUDE,GMTOFF,DSTOFF,TIMEZONE,CC,REGION,UNSUB_TIME,UNSUB_CAMPAIGN_TITLE,UNSUB_CAMPAIGN_ID,UNSUB_REASON,UNSUB_REASON_OTHER,LEID,EUID,NOTES
tlavigne@co.essex.ny.us,Anthony,LaVigne,TODI,NYSCHSA-TOD,Essex County DPW,,,Elizabethtown,NY,,,,,Northeastern,,,,,,,,,,,,,,,,,,,4,5/14/14 11:15,,5/14/14 11:15,,44.389,'-73.8437000,'-5,'-4,America/Montreal,US,NY,12/30/14 6:09,December 22 Newsline,bc1683c99a,NORMAL,,154786765,ec71b1749f,
djenkins@sccaweb.org,Kate,Mergen,CSE,,"Southern California Contractors Association, Inc.",,CSE,Los Angeles,CA,,,,Executive Vice President,Western,,,,,,,,,,,,,,,,,,,2,5/14/14 11:15,,5/14/14 11:15,,34.0305,'-118.3180000,'-8,'-7,America/Los_Angeles,US,CA,1/5/15 9:56,n/a,n/a,,,154771441,8b615f2d47,
wkingery@vac-vision.com,Wesley,Kingery,CONTC,SMP,"VacVision Environmental, LLC",,,Tampa,FL,,,,Managing Member,Southern,,,,,,,,,,,,,,,,,,,3,5/14/14 11:15,,5/14/14 11:15,,33.7791,'-84.5701000,'-5,'-4,America/Kentucky/Monticello,US,GA,12/30/14 9:05,January 12 DBE Webinar,144ef4ba7e,NORMAL,,154788105,a51cf79a05,
cgriswold@myvne.com,Caitlin,Griswold,EMANI,Prim Mbr - Direct,Rock and Recycling Solutions,,,Hopkinton,MA,,,,Marketing & Sales Coordinator,Northeastern,,,,,,,,,,,,,,,,,,,2,5/14/14 11:15,,5/14/14 11:15,,42.8155,'-73.9395000,'-5,'-4,America/New_York,US,NY,1/6/15 8:07,Nov/Dec TB,1bec847780,NORMAL,,154769193,3004a51575,
sreiss1276@aol.com,Sue,Reiss,,,,,,,,WLTDC,,,,,,,,,,,,,,,,,,,,,,,1,7/29/14 14:56,,7/29/14 14:56,50.241.138.177,34.0061,'-118.2570000,'-8,'-7,America/Los_Angeles,US,CA,1/6/15 12:20,What They're Saying,6800e73dcd,SPAM,,165213741,a97c6d17ca,
aparker@ampcoelectric.com,Angie,Parker,CONTC,Svc Mbr - Enrolled Tie,Ampco Electric,,,Ft. Lauderdale,FL,,,,Office Manager,Southern,,,,,,,,,,,,,,,,,,,2,5/14/14 11:15,,5/14/14 11:15,,26.1828,'-80.1757000,'-5,'-4,America/Nassau,US,FL,1/8/15 9:18,Call for Webinars,2f23a72cb9,OTHER,To many emails,154767093,955d1e74eb,
eric.nolan@stvinc.com,Eric,Nolan,PDI,SMD,STV Incorporated,,,New York,NY,,,,Systems Engineer,Northeastern,,,,,,,,,,,,,,,,,,,2,5/14/14 11:15,,5/14/14 11:15,,40.6995,'-73.8088000,'-5,'-4,America/New_York,US,NY,1/8/15 16:02,What They're Saying Part 3,2c4967bc44,,,154772625,cf25db8efb,
lee.duchanois@oldcastlematerials.com,Lee,Duchanois,CONTI,SMP,APAC Central,,,Fayetteville,AR,,,,Region CFO,Southern,,,,,,,,,,,,,,,,,,,3,5/14/14 11:15,,5/14/14 11:15,,36.0998,'-94.1539000,'-6,'-5,America/Indiana/Tell_City,US,AR,1/8/15 16:02,What They're Saying Part 3,2c4967bc44,NORMAL,,154779085,1afc4162c4,
tdgriffith@mmm.com,Terry,Griffith,PPVI,SMD,3M,,,St. Paul,MN,,,,International Business Manager,Central,,,,,,,,,,,,,,,,,,,3,5/14/14 11:15,,5/14/14 11:15,,41.52,'-81.5564000,'-5,'-4,America/Detroit,US,OH,1/8/15 16:10,What They're Saying Part 3,2c4967bc44,NORMAL,,154786269,9e5296b530,
jason.adkisson@ch2m.com,Jason,Adkisson,PPVI,SMD,CH2M Hill,,,Englewood,CO,,,TLC,Corporate Counsel,Western,,,,,,,,,,,,,,,,,,,2,5/14/14 11:15,,5/14/14 11:15,,33.6142,'-84.4971000,'-5,'-4,America/Kentucky/Monticello,US,GA,1/12/15 12:53,January 12 Newsline,17e04de9ef,NORMAL,,154775001,64548b8b1e,
lacuneo@apac.com,Lee,Cuneo,CONTC,SMP,"APAC-Tennessee, Inc., Ballenger Paving Division",,,Greenville,SC,,,,Contracts Administrator,Southern,,,,,,,,,,,,,,,,,,,4,5/14/14 11:15,,5/14/14 11:15,,,,,,,,,1/12/15 13:57,January 12 Newsline,17e04de9ef,OTHER,leaving the firm,154778841,1fb12a51c5,
wendy.dafoe@nrel.gov,Windy,Dafoe,REDI,PMD,National Renewable Energy Laboratory,,,Golden,CO,,,,Sr. Project Leader,Western,,,,,,,,,,,,,,,,,,,2,5/14/14 11:15,,5/14/14 11:15,,33.8171,'-84.2819000,'-5,'-4,America/Kentucky/Monticello,US,GA,1/12/15 12:45,January 12 Newsline,17e04de9ef,NORMAL,,154787945,8cfa09b5d2,
mschwartzkopf@leavenworthcounty.org,Mickey,Schwartzkopf,TODI,KCHA-TOD,Leavenworth County,,,Leavenworth,KS,,,,,Central,,,,,,,,,,,,,,,,,,,2,5/14/14 11:15,,5/14/14 11:15,,39.2158,'-94.5728000,'-6,'-5,America/Indiana/Knox,US,MO,1/13/15 16:40,January 13 Newsline,c00f06e4de,,,154781409,4063f2a432,
springerms@bellsouth.net,Edward,Springer,TODI,MACE - Mississippi Assocation of County Engineers,Chickasaw County Engineer,,,Starkville,MS,,,,,Southern,,,,,,,,,,,,,,,,,,,2,5/14/14 11:15,,5/14/14 11:15,,,,,,,,,1/19/15 10:57,What They're Saying Part 5,8518ae7ef1,NORMAL,,154785457,af7de06aa3,
nortonrd@ruraltel.net,Sandy,Smith,TODI,KCHA-TOD,Norton County,,,Norton,KS,,,,,Central,,,,,,,,,,,,,,,,,,,2,5/14/14 11:15,,5/14/14 11:15,,39.875,'-99.1376000,'-6,'-5,America/North_Dakota/New_Salem,US,KS,1/22/15 17:00,What They're Saying Part 6,3d2a4da4cb,NORMAL,,154781833,2c7697b306,
andy.powell@urs.com,Andy,Powell,PDI,SMD,URS Corporation,,,Salt Lake City,UT,,,,Transportation Business Line Leader,Western,,,,,,,,,,,,,,,,,,,2,5/14/14 11:15,,5/14/14 11:15,,32.9502,'-96.7109000,'-6,'-5,America/Indiana/Tell_City,US,TX,1/23/15 10:04,PMA & P6,8f2d0e7923,,,154767009,ca521425c2,
lynn.ralls@covcounty.com,Lynn,Ralls,TODI,ACEA - Assn. of County Engineers of Alabama,Covington County,,,Andalusia,AL,,,,,Southern,,,,,,,,,,,,,,,,,,,3,5/14/14 11:15,,5/14/14 11:15,,31.308,'-86.4769000,'-6,'-5,America/Indiana/Tell_City,US,AL,1/28/15 9:00,Globe & Helping Hand,8007afdd27,NORMAL,,154779621,17b3426f36,
ken.butler@aecom.com,Ken,Butler,PDI,SMD,AECOM,,,Glen Allen,VA,,,,Vice President,Southern,,,,,,,,,,,,,,,,,,,2,5/14/14 11:15,,5/14/14 11:15,,37.9586,'-102.5790000,'-6,'-5,America/North_Dakota/New_Salem,US,CO,2/2/15 15:12,What They're Saying Part 7,b6ed91df53,NORMAL,,154778073,2ab69806ef,
ausbern@bellsouth.net,Terry,Ausbern,CONTC,SMP,"Ausbern Construction Co., Inc.",,,Okolona,MS,,,,,Southern,,,,,,,,,,,,,,,,,,,1,5/14/14 11:15,,5/14/14 11:15,,35.9903,'-86.8959000,'-6,'-5,America/Indiana/Tell_City,US,TN,2/3/15 9:45,ARTBA Newsline: February 2,2af1b24883,SPAM,,154767309,aefd739773,
ppj2@psu.edu,Paul,Jovanis,REDI,SMD,Larson Institute- Pennsylvania University,,,University Park,PA,,,,,Northeastern,,,,,,,,,,,,,,,,,,,3,5/14/14 11:15,,5/14/14 11:15,,40.6925,'-75.6551000,'-5,'-4,America/New_York,US,PA,2/2/15 21:46,ARTBA Newsline: February 2,2af1b24883,,,154782613,fa716383f2,
dshelton@haleyaldrich.com,Derrick,Shelton,PDI,SMD,"Haley & Aldrich, Inc.",,,McLean,VA,,,,Vice President,Southern,,,,,,,,,,,,,,,,,,,2,5/14/14 11:15,,5/14/14 11:15,,,,,,,,,2/5/15 7:59,ARTBA Newsline: February 4,cc49cf3efe,NORMAL,,154772029,818e1b392a,
davet@kentcompanies.com,David,Turner,CONTC,SMP,"Kent Companies, Inc.",,,Grand Rapids,MI,,,,,Central,,,,,,,,,,,,,,,,,,,4,5/14/14 11:15,,5/14/14 11:15,,42.9865,'-85.7210000,'-5,'-4,America/Toronto,US,MI,2/10/15 10:40,February 11 Webinar,7b1ffc91b1,NORMAL,,154770589,e4dc09b6f6,
robertdixon51@gmail.com,Robert,Dixon,TODI,MACE - Mississippi Assocation of County Engineers,Yazoo County Engineer,,,Yazoo City,MS,,,,,Southern,,,,,,,,,,,,,,,,,,,3,5/14/14 11:15,,5/14/14 11:15,,41.7827,'-73.8913000,'-5,'-4,America/New_York,US,NY,2/16/15 9:11,February 16 Newsline,4f2f8feb71,NOSIGNUP,,154783921,d0f1e1601a,
chris.butler@jocogov.org,Chris,Butler,TODI,KCHA-TOD,Johnson County,,,Olathe,KS,,,,,Central,,,,,,,,,,,,,,,,,,,2,5/14/14 11:15,,5/14/14 11:15,,,,,,,,,2/23/15 9:58,Newsline February 23,b6ad20ff48,,,154769377,ef83f19b6c,
info@cherokee-sc.com,John,Jordan Jr.,,,Cherokee Inc.,,,,SC,,,,President,Southern,,Southern,,,,,,,,,,,,,,,,,2,11/5/14 10:33,,11/5/14 10:33,,,,,,,,,2/23/15 9:05,Newsline February 23,b6ad20ff48,,,165247317,5317a095f4,
rlippert@lippertbros.com,Rick,Lippert,CONTC,Svc Mbr - Enrolled Tie,"LIPPERT BROTHERS, INC.",,,Oklahoma City,OK,,,,,Western,,,,,,,,,,,,,,,,,,,2,5/14/14 11:15,,5/14/14 11:15,,35.4904,'-97.5601000,'-6,'-5,America/Indiana/Tell_City,US,OK,2/24/15 11:53,PMA & P6,2627dc26a0,NORMAL,,154783681,608ce013cc,
jdigenova@haleyaldrich.com,John,DiGenova,PDI,SMD,"Haley & Aldrich, Inc.",,,Bedford,NH,,,,Vice President,Northeastern,,,,,,,,,,,,,,,,,,,3,5/14/14 11:15,,5/14/14 11:15,,42.9436,'-71.5212000,'-5,'-4,America/New_York,US,NH,2/26/15 15:21,Newsline February 26,79211b00ed,NOSIGNUP,,154775393,0785ef8fc4,
SJones@BBINFRASTRUCTUREINC.COM,Steve,Jones,CONTI,SMD,"Balfour Beatty Infrastructure, Inc.",,,Canonsburg,PA,,,,,Northeastern,,,,,,,,,,,,,,,,,,,2,5/14/14 11:15,,5/14/14 11:15,,33.4635,'-82.2083000,'-5,'-4,America/Kentucky/Monticello,US,GA,2/26/15 15:24,Newsline February 26,79211b00ed,,,154785185,a692d92983,
hancockh@mediacombb.net,Elgin,Berry,TODI,SMD,"Hancock County, Illinois Assn. of County Engineers",,,Carthage,IL,,,,,Central,,,,,,,,,,,,,,,,,,,2,5/14/14 11:15,,5/14/14 11:15,,40.6602,'-90.4333000,'-6,'-5,America/Indiana/Knox,US,IL,2/27/15 10:58,YEDP 2015,ee461691e7,NORMAL,,154774013,62b8f4341e,
matt.snyder@uig.net,Matt,Snyder,CONTI,SMD,"United Infrastructure Group, Inc.",,,Sanford,FL,,,,Vice President- FL Operations,Southern,,,,,,,,,,,,,,,,,,,2,6/12/14 17:23,,6/12/14 17:23,,,,,,,,,3/5/15 11:25,YEDP 2015,ef1cf0d182,NOSIGNUP,,165208865,a06938a6c5,
Brent@brentscarbrough.com,Brent,Scarbrough,CONTC,SMP,"Brent Scarbrough & Company, Inc.",,,Fayetteville,GA,,,,President,Southern,,,,,,,,,,,,,,,,,,,2,5/14/14 11:15,,5/14/14 11:15,,,,,,,,,3/9/15 9:06,Newsline March 9,e83c0a8c4f,NORMAL,,154768417,e104bb0f6e,
mreilly@rrpub.com,Michael,Reilly,COMP,,Randall-Reilly Publishing,BOD,,Tuscaloosa,AL,,,,President and CEO,Southern,,,,,,,,,,,,,,,,,,,2,5/14/14 11:15,,5/14/14 11:15,,39.2158,'-94.5728000,'-6,'-5,America/Indiana/Knox,US,MO,3/9/15 10:02,Newsline March 9,e83c0a8c4f,NORMAL,,154781341,0a48906986,
tom.lewis@lafarge-na.com,Tom,Lewis,CONTC,Svc Mbr - Enrolled Tie,LAFARGE,,,Franklin,TN,,,,,Southern,,,,,,,,,,,,,,,,,,,3,5/14/14 11:15,,5/14/14 11:15,,30.5364,'-90.1072000,'-6,'-5,America/Indiana/Tell_City,US,LA,3/9/15 10:10,Newsline March 9,e83c0a8c4f,OTHER,I no longer work in this industry.,154786965,545d8d977b,
scrd@pld.com,Paul,Case,TODI,KCHA-TOD,Stanton County,,,Johnson,KS,,,,,Central,,,,,,,,,,,,,,,,,,,3,5/14/14 11:15,,5/14/14 11:15,,,,,,,,,3/17/15 11:07,PMA & P6,7622364fe3,NORMAL,,154784877,9a95c0846e,
jkolaya@ycc969midland.com,John,Kolaya,CONTC,SMP,"Yonkers Contracting Co., Inc.",,,Yonkers,NY,,,,Executive Vice President,Northeastern,,,,,,,,,,,,,,,,,,,3,5/14/14 11:15,,5/14/14 11:15,,40.6313,'-74.4370000,'-5,'-4,America/New_York,US,NJ,3/18/15 18:01,Law Forum 2015,cc1bf2a1b9,,,154776237,2fa2e4db53,
jnowlinjr@aol.com,John,Nowlin,EMANI,AEM,Wilco Manufacturing LLC,,,Lafayette,LA,,,,General Manager,Southern,,,,,,,,,,,,,,,,,,,1,5/14/14 11:15,,5/14/14 11:15,,,,,,,,,3/18/15 16:10,Law Forum 2015,cc1bf2a1b9,SPAM,,154776593,e426b1d712,
mselby@mmm.com,Megan,Selby,TSIDI,SMD,3M,,,St. Paul,MN,,,,Global Business Director,,,,,,,,,,,,,,,,,,,,2,3/16/15 13:18,,3/16/15 13:18,50.241.138.177,,,,,,,,3/21/15 11:26,Law Forum 2015,cc1bf2a1b9,NORMAL,,165268125,3f40fa8723,
grf@pbtcomm.net,Janet,Rodgers,CONTC,SMP,Gene Ray Fulmer Construction,,,Ridge Spring,SC,,,,President,Southern,,,,,,,,,,,,,,,,,,,2,5/14/14 11:15,,5/14/14 11:15,,33.8869,'-81.5341000,'-5,'-4,America/Kentucky/Monticello,US,SC,3/23/15 9:42,March 23 Newsline,e940ef1ac7,,,154773785,342e6b21c6,
charles.manning@aecom.com,Charles,Manning,PDI,SMD,AECOM,,,New York,NY,,,,,Northeastern,,,,,,,,,,,,,,,,,,,3,5/14/14 11:15,,5/14/14 11:15,,40.7453,'-73.6411000,'-5,'-4,America/New_York,US,NY,3/26/15 17:08,Action Alert Text,8ef24c4adf,,,154769269,dd67503735,
sstafiniak@lmgeo.com,Stephen,Stafiniak,CONTA,SMP,"LandMarker Geospatial, LLC",,,Hornell,NY,,,,,Northeastern,,,,,,,,,,,,,,,,,,,3,5/14/14 11:15,,5/14/14 11:15,,40.5812,'-75.4721000,'-5,'-4,America/New_York,US,PA,3/26/15 16:47,Action Alert Text,8ef24c4adf,NORMAL,,154785585,ed97020f9e,
barbara@impactrecovery.com,Barbara,Cheatham,TSIDI,SMD,"Impact Recovery Systems, Inc.",,,San Antonio,TX,,,,,Western,,,,,,,,,,,,,,,,,,,2,5/14/14 11:15,,5/14/14 11:15,,,,,,,,,3/30/15 9:47,Newsline March 30,7c64ac8569,NORMAL,,154767413,94abe5da0a,
sales@stedman-machine.com,Ginny,Lane,CONTA,Svc Mbr - Enrolled Tie,Stedman Machine Company,,,Aurora,IN,,,,,Central,,,,,,,,,,,,,,,,,,,2,5/14/14 11:15,,5/14/14 11:15,,35.6759,139.77,9,9,Asia/Tokyo,JP,13,4/1/15 12:15,Law & Regulatory Forum,792042675f,NORMAL,,154784521,9c8ae83462,
phil@marchwestin.com,Phillips,Weser,CONTC,Svc Mbr - Enrolled Tie,"March Westin Company, Inc.",BOD,,Morgantown,WV,,,,President,Southern,,,,,,,,,,,,,,,,,,,3,5/14/14 11:15,,5/14/14 11:15,,28.6216,'-80.8401000,'-5,'-4,America/Kentucky/Monticello,US,FL,4/4/15 8:57,ARTBA Newsline: April 3,a887a2b43b,,,154782365,f843970920,
ltap@virginia.edu,A.,Dr.,REDI,RED,U. Va. Transportation Training Academy,,,Charlottesville,VA,,,,Director,Southern,,,,,,,,,,,,,,,,,,,2,5/14/14 11:15,,5/14/14 11:15,,,,,,,,,4/10/15 17:31,Newsline: April 10,a122964efd,,,154779529,37634f74f4,
fred.white@volkert.com,Frederick,Mr.,PDI,SMD,"Volkert, Inc.",,,Alexandria,VA,,,,Vice President,Southern,,,,,,,,,,,,,,,,,,,2,5/14/14 11:15,,5/14/14 11:15,,37.7476,'-77.4719000,'-5,'-4,America/Kentucky/Monticello,US,VA,4/16/15 13:41,Phone 2 Action,8b30fd7466,,,154773025,de3f174438,
mhoene@concretebiz.com,E.,Hoene,EMANI,PMA,Advanced Concrete,,,Portsmouth,NH,,,,President,Northeastern,,,,,,,,,,,,,,,,,,,2,5/14/14 11:15,,5/14/14 11:15,,40.8715,'-73.0846000,'-5,'-4,America/New_York,US,NY,4/16/15 15:37,Phone 2 Action,8b30fd7466,NORMAL,,154780573,d6d3284ac9,
wgriffin@fialapaving.com,Woodie,Griffin,CONTC,SMP,"James D. Fiala Paving Co., Inc.",,,Bolingbrook,IL,,,,President,Central,,,,,,,,,,,,,,,,,,,2,5/14/14 11:15,,5/14/14 11:15,,41.7047,'-88.0752000,'-5,'-4,America/Toronto,US,IL,4/20/15 10:52,April 17 Newsline,738a6b5365,,,154787993,c32a8b33ef,
hootenoil@rsib.net,David,Hooten,CONTC,Svc Mbr - Enrolled Tie,"HOOTEN OIL COMPANY, INC.",,,Seminole,OK,,,,,Western,,,,,,,,,,,,,,,,,,,3,5/14/14 11:15,,5/14/14 11:15,,35.235,'-96.6751000,'-6,'-5,America/Indiana/Tell_City,US,OK,4/22/15 9:22,April 17 Newsline,738a6b5365,,,154774405,9bced5255b,
jeff@jlsrebar.com,Jeff,Myers,CONTC,Svc Mbr - Enrolled Tie,"JL STEEL REINFORCING, LLC",,,Ft. Worth,TX,,,,,Western,,,,,,,,,,,,,,,,,,,2,5/14/14 11:15,,5/14/14 11:15,,32.7047,'-97.3350000,'-6,'-5,America/Indiana/Tell_City,US,TX,4/21/15 9:21,April 28 Webinar,fa6f6a7b56,NORMAL,,154775497,02e8ad01b1,
Elizabeth.Hilton@dot.gov,Elizabeth,Hilton,TODI,SMD,Federal Highway Administration,,,Austin,TX,,,,Geometric Design Engineer,,,,,,,,,,,,,,,,,,,,2,3/4/15 16:32,,3/4/15 16:32,50.241.138.177,,,,,,,,4/21/15 13:43,April 28 Webinar,fa6f6a7b56,,,165266733,bc5aacc1d1,
becky.boston@uky.edu,Becky,Boston,,,,,,,,,,,,,,,,,,,,,,,,,,,,,,,2,4/8/15 12:03,,4/8/15 12:03,50.241.138.177,38.9127,'-77.0717000,'-5,'-4,America/New_York,US,DC,4/24/15 14:45,April 28 Webinar,32d6567a57,OTHER,Too many emails,165272329,c124f69cad,
kbechd@elmore.rr.com,Kevin,Boone,TODI,ACEA - Assn. of County Engineers of Alabama,Elmore County,,,Wetumpka,AL,,,,,Southern,,,,,,,,,,,,,,,,,,,4,5/14/14 11:15,,5/14/14 11:15,,32.532,'-86.1938000,'-6,'-5,America/Indiana/Tell_City,US,AL,4/27/15 11:38,Newsline April 22,90123e6213,NORMAL,,154777917,41c35bbf6b,
rregier@artba.org,Rob,Regier,PDI,,ARTBA,,,,,,,,,Central,,Central,,,,,,,,,,,,,,,,,2,5/14/14 11:15,,5/14/14 11:15,,38.6076,'-95.2676000,'-6,'-5,America/Indiana/Tell_City,US,KS,4/27/15 11:55,April 28 Webinar,fa6f6a7b56,SPAM,,154784201,bc0728d944,
bwylam@huntconstructiongroup.com,Bruce,Wylam,CONTC,SMP,"Hunt Construction Group, Inc.",,,Indianapolis,IN,,,,,,,,,,,,,,,,,,,,,,,,3,1/26/15 9:22,,1/26/15 9:22,50.241.138.177,37.2425,'-121.8350000,'-8,'-7,America/Los_Angeles,US,CA,4/28/15 11:02,April 28 Webinar,8663ed1fa9,,,165265917,e65bd79d84,
PCoffee@transurban.com,Pierce,Resler Coffee,PPVI,SMD,Transurban,,,Alexandria,VA,,,,,Southern,,,,,,,,,,,,,,,,,,,2,5/14/14 11:15,,5/14/14 11:15,,40.6756,'-76.2326000,'-5,'-4,America/New_York,US,PA,4/30/15 10:58,Monster,cc9a1759e7,OTHER,I'm moving and would like to reduce my US emails for a while.,154782197,b3a7d92b67,
caitlin.knissel@inquestmarketing.com,,,,,,,,,,,,,,,,,,,,,,,,,,,,,,,,,2,5/14/14 11:15,,5/14/14 11:15,,40.9435,'-74.4788000,'-5,'-4,America/New_York,US,NJ,5/4/15 10:35,Newsline May 1,5fa29111b3,NORMAL,,154788425,c6380e8512,
kwillingham@oltc.com,Ken,Willingham,CONTC,SMP,O. L. Thompson Construction Co.,,,Charleston,SC,,,,President/Trucking Div.,Southern,,,,,,,,,,,,,,,,,,,3,5/14/14 11:15,,5/14/14 11:15,,32.8594,'-79.9882000,'-5,'-4,America/Kentucky/Monticello,US,SC,5/6/15 14:00,Campaign Day 1,1a604f8d7d,,,154778813,d787575dbd,
jay.muether@urs.com,Jay,Muether,PDI,SMD,URS Corporation,,,Columbus,OH,,,,Vice President,Central,,,,,,,,,,,,,,,,,,,2,5/14/14 11:15,,5/14/14 11:15,,,,,,,,,5/7/15 7:23,ARTBA Newsline May 6,415eef4d3f,,,154775049,ec977c81eb,
jlmori@jmoripainting.com,Joe,Mori,CONTC,SMP,"J. Mori Painting, Inc.",,,Hialeah,FL,,,,Vice President,Southern,,,,,,,,,,,,,,,,,,,3,5/14/14 11:15,,5/14/14 11:15,,25.8901,'-80.3415000,'-5,'-4,America/Nassau,US,FL,5/6/15 18:19,ARTBA Newsline May 6,415eef4d3f,NORMAL,,154776317,1a14f188e7,
jhall@intiron.com,John,Hall,CONTA,Svc Mbr - Enrolled Tie,International Iron,,,Apopka,FL,,,,President,Southern,,,,,,,,,,,,,,,,,,,3,5/14/14 11:15,,5/14/14 11:15,,28.392,'-81.4154000,'-5,'-4,America/Kentucky/Monticello,US,FL,5/7/15 8:15,Campaign Day 2,d27849f5b6,NORMAL,,154775821,db79929d3d,
mscopwdept@bluevalley.net,Michael,Craig,TODI,KCHA-TOD,Marshall County,,,Marysville,KS,,,,,Central,,,,,,,,,,,,,,,,,,,2,5/14/14 11:15,,5/14/14 11:15,,39.8464,'-96.6453000,'-6,'-5,America/North_Dakota/New_Salem,US,KS,5/7/15 8:56,Campaign Day 2,d27849f5b6,NORMAL,,154781413,8937ef3861,
mtudor@mrtudor.com,Mike,Tudor,CONTA,SMP,M. R. Tudor Companies,,,Tulsa,OK,,,,,Western,,,,,,,,,,,,,,,,,,,3,5/14/14 11:15,,5/14/14 11:15,,40.3531,'-74.0746000,'-5,'-4,America/New_York,US,NJ,5/7/15 11:57,Campaign Day 2,d27849f5b6,NORMAL,,154781537,a9ca50f1a0,
tjanders@ncsu.edu,Tracy,Anderson,,,,,,,,,,,,,,,,,,,,,,,,,,,,,,,3,4/8/15 12:03,,4/8/15 12:03,50.241.138.177,38.9127,'-77.0717000,'-5,'-4,America/New_York,US,DC,5/7/15 9:49,Campaign Day 1,1a604f8d7d,,,165272321,a02a4338c1,
bkerr@kerrenv.com,Bob,Kerr,CONTC,Svc Mbr - Enrolled Tie,Kerr Environmental Services Corp.,,,Virginia Beach,VA,,,,,Southern,,,,,,,,,,,,,,,,,,,3,5/14/14 11:15,,5/14/14 11:15,,38.68,'-77.3090000,'-5,'-4,America/New_York,US,VA,5/12/15 9:19,Campaign Day 4,aeb39698c2,NOSIGNUP,,154768041,b349d7e5a7,
dalbertson@hardincountyia.gov,Daryl,Albertson,TODI,ICEA-TOD,Hardin County Engineer,,,Eldora,IA,,,,,Central,,,,,,,,,,,,,,,,,,,2,5/14/14 11:15,,5/14/14 11:15,,,,,,,,,5/12/15 9:53,Campaign Day 4,aeb39698c2,NORMAL,,154770273,cb255ac81f,
georgespeake@mc-ala.org,George,Speake,TODI,ACEA - Assn. of County Engineers of Alabama,Montgomery County,,,Montgomery,AL,,,,Engineer,Southern,,,,,,,,,,,,,,,,,,,2,5/14/14 11:15,,5/14/14 11:15,,33.7506,'-84.3877000,'-5,'-4,America/Kentucky/Monticello,US,GA,5/12/15 9:06,Campaign Day 4,aeb39698c2,,,154773373,d64ba37a5c,
bwelch@aui-ok.com,Barney,Welch,CONTC,Svc Mbr - Enrolled Tie,"ASSOCIATED UNDERWRITERS, INC.",,,Oklahoma City,OK,,,,,Western,,,,,,,,,,,,,,,,,,,2,5/14/14 11:15,,5/14/14 11:15,,35.4562,'-97.5287000,'-6,'-5,America/Indiana/Tell_City,US,OK,5/12/15 17:10,P3 Webinar 2015,e491562b61,NORMAL,,154768777,bf5424f98a,
jnichols@trinityinc.com,John,Nichols,CONTC,SMP,"Trinity Products, Inc.",,,O'Fallon,MO,,,,Safety Officer,Central,,,,,,,,,,,,,,,,,,,2,5/14/14 11:15,,5/14/14 11:15,,39.2158,'-94.5728000,'-6,'-5,America/Indiana/Knox,US,MO,5/13/15 9:02,Campaign Day 5,4895c67f87,NOSIGNUP,,154776581,dc4fa82a43,
Chris.humphreys@psiusa.com,Chris,Humphreys,PDI,SMD,"Professional Service Industries, Inc.",,,Mandeville,LA,,,,Executive Vice President,Southern,,,,,,,,,,,,,,,,,,,2,5/14/14 11:15,,5/14/14 11:15,,30.0546,'-95.3830000,'-6,'-5,America/Indiana/Tell_City,US,TX,5/13/15 11:58,TIAC Workshop,4c21c98fd4,,,154769389,d3f6d46590,
drhouch526@aol.com,David,Houchin,CONTA,SMP,"Contech Construction Products, Inc.",,,Lexington,KY,,,,,Southern,,,,,,,,,,,,,,,,,,,2,5/14/14 11:15,,5/14/14 11:15,,25.7373,'-80.3091000,'-5,'-4,America/Nassau,US,FL,5/13/15 12:33,ARTBA’s “Full-Metal Jacket” on Highway Trust Fund,c81d0224f9,NORMAL,,154771933,9e9a254450,
mstubblefield@horizonsignal.com,Matt,Stubblefield,CONTA,Svc Mbr - Enrolled Tie,Horizon Signal Technologies,,,Reading,PA,,,,Regional Sales Manager,Northeastern,,,,,,,,,,,,,,,,,,,2,5/14/14 11:15,,5/14/14 11:15,,,,,,,,,5/13/15 17:31,ARTBA Newsline: May 13,c6ad729418,NORMAL,,154781477,31c2711f49,
keith.purvis@neel-schaffer.com,Keith,Purvis,PDI,SMD,"Neel-Schaffer, Inc.",,,Jackson,MS,,,,VP,,,,,,,,,,,,,,,,,,,,2,3/17/15 11:49,,3/17/15 11:49,50.241.138.177,38.9127,'-77.0717000,'-5,'-4,America/New_York,US,DC,5/13/15 17:48,ARTBA Newsline: May 13,c6ad729418,NORMAL,,165268137,822b3903bb,
kelly@mid-stateconstruction.com,Kelly,Coleman,,,Mid State Construction,,,,TN,,,,,Southern,,Southern,,,,,,,,,,,,,,,,,3,11/5/14 10:33,,11/5/14 10:33,,36.6194,'-85.4314000,'-5,'-4,America/Kentucky/Monticello,US,TN,5/14/15 9:05,Campaign Day 6,b01b381047,,,165247333,6844c2c9c2,
nlcarsonbridge@aol.com,N.L.,Carson,CONTC,SMP,"N.L. Carson Construction, Inc.",,,Carthage,MS,,,,President,Southern,,,,,,,,,,,,,,,,,,,2,5/14/14 11:15,,5/14/14 11:15,,36.6913,'-85.1338000,'-5,'-4,America/Kentucky/Monticello,US,KY,5/14/15 13:40,Campaign Day 6,b01b381047,SPAM,,154781813,22fc9bc26d,
jriherd@butlercoiowa.org,John,Riherd,TODI,ICEA-TOD,Butler County Engineer,,,Allison,IA,,,,,Central,,,,,,,,,,,,,,,,,,,3,5/14/14 11:15,,5/14/14 11:15,,42.2889,'-83.4775000,'-5,'-4,America/Toronto,US,MI,5/14/15 13:22,Campaign Day 6,b01b381047,NORMAL,,154777321,b401ad4900,
jimwv@cs.com,Larry,De Roo,CONTC,SMP,"Kokosing Construction Company, Inc.",,,Springfield,OH,,,,,Central,,,,,,,,,,,,,,,,,,,4,5/14/14 11:15,,5/14/14 11:15,,28.5051,'-81.2901000,'-5,'-4,America/Kentucky/Monticello,US,FL,5/16/15 14:00,ARTBA’s “Full-Metal Jacket” on Highway Trust Fund,c81d0224f9,SPAM,,154776069,46fe5ff84b,
mmgates@mmm.com,Mark,Gates,TSIDI,SMD,3M,,,St. Paul,MN,,,,,Central,,,,,,,,,,,,,,,,,,,2,5/14/14 11:15,,5/14/14 11:15,,42.0088,'-88.0014000,'-5,'-4,America/Toronto,US,IL,5/15/15 16:49,ARTBA Newsline: May 15,ea404c5325,OTHER,no longer in this industry,154781137,62d597964b,
mark@norville.com,Mark,Norville,CONTC,Svc Mbr - Enrolled Tie,"Shoreline Aggregate, Inc.",,,,,,,,President,,,,,,,,,,,,,,,,,,,,2,2/11/15 12:16,,2/11/15 12:16,50.241.138.177,42.0472,'-87.8917000,'-5,'-4,America/Toronto,US,IL,5/16/15 13:26,ARTBA Newsline: May 15,ea404c5325,INAPPROPRIATE,,165266577,0ba90032dc,
eric.smith@urs.com,Eric,Smith,PDI,SMD,URS Corporation,,,Akron,OH,,,,Vice President,Central,,,,,,,,,,,,,,,,,,,4,5/14/14 11:15,,5/14/14 11:15,,41.651,'-83.6038000,'-5,'-4,America/Detroit,US,OH,5/18/15 9:03,Campaign Day 7,e69f971994,NORMAL,,154772633,cedd48f7fb,
jwelch@barrycrc.org,Jacob,Mr.,TODI,CRAM,Barry County Road Commission,,,Hastings,MI,,,,,Central,,,,,,,,,,,,,,,,,,,3,5/14/14 11:15,,5/14/14 11:15,,41.1662,'-74.9555000,'-5,'-4,America/New_York,US,PA,5/18/15 9:00,Campaign Day 7,e69f971994,NORMAL,,154777677,8632d46bc7,
pmoore@bdlaw.com,W.,Moore,MSI,Prim Mbr - Direct,"Beveridge & Diamond, P.C.",,,Washington,DC,,,TLC,Principal,Northeastern,,,,,,,,,,,,,,,,,,,3,5/14/14 11:15,,5/14/14 11:15,,38.9052,'-76.9927000,'-5,'-4,America/New_York,US,DC,5/18/15 9:04,Campaign Day 7,e69f971994,OTHER,Too many emails ,154782557,f3d892858a,
sbkirkland@houstoncounty.org,Barkley,Kirkland,TODI,ACEA - Assn. of County Engineers of Alabama,Houston County,,,Dothan,AL,,,,,Southern,,,,,,,,,,,,,,,,,,,2,5/14/14 11:15,,5/14/14 11:15,,33.6391,'-86.6919000,'-6,'-5,America/Indiana/Tell_City,US,AL,5/18/15 16:52,Campaign Day 7,e69f971994,,,154784665,6f22711f03,
Gary.Wall@oldcastlematerials.com,Gary,Wall,MSI,SMD,"Tilcon Connecticut, Inc",,,New Britain,CT,,,,General Manager,Northeastern,,,,,,,,,,,,,,,,,,,2,5/14/14 11:15,,5/14/14 11:15,,41.67,'-72.8648000,'-5,'-4,America/New_York,US,CT,5/19/15 9:16,Campaign Day 8,c435a6e489,OTHER,I ama getting duplicate emails. Please unsubscribe me from one only,154773189,874ea7d825,
jburgstrum@scottcountyiowa.com,Jon,Burgstrum,TODI,ICEA-TOD,Scott County Engineer,,,Davenport,IA,,,,,Central,,,,,,,,,,,,,,,,,,,2,5/14/14 11:15,,5/14/14 11:15,,33.7393,'-85.1353000,'-5,'-4,America/Kentucky/Monticello,US,GA,5/19/15 10:37,Campaign Day 8,c435a6e489,NORMAL,,154775205,0e52d9468f,
jtipton@shepconst.com,Julie,Thomas,CONTC,SMD,"Plant Improvement Company, Inc.",,,Atlanta,GA,,,,"Controller, Assistant Secretary",Southern,,,,,,,,,,,,,,,,,,,2,5/14/14 11:15,,5/14/14 11:15,,,,,,,,,5/19/15 12:26,Campaign Day 8,c435a6e489,NORMAL,,154777517,c5f567e321,
juan.zapata@stvinc.com,Juan,Zapata,PDI,SMD,STV Incorporated,,,New York,NY,,,,Environmental Technican,Northeastern,,,,,,,,,,,,,,,,,,,2,5/14/14 11:15,,5/14/14 11:15,,40.7608,'-73.9457000,'-5,'-4,America/New_York,US,NY,5/19/15 9:17,Campaign Day 8,c435a6e489,NORMAL,,154777573,6652084807,
justinbarfield@centurytel.net,Justin,L.Barfield,TODI,ACEA - Assn. of County Engineers of Alabama,Geneva County,,,Hartford,AL,,,,,Southern,,,,,,,,,,,,,,,,,,,2,5/14/14 11:15,,5/14/14 11:15,,,,,,,,,5/19/15 9:33,Campaign Day 8,c435a6e489,NORMAL,,154777609,c04917e0d8,
aangel@psomas.com,Alejandro,Angel,PDI,SMD,"Psomas, Inc.",,,Tucson,AZ,,,,Vice President,Western,,,,,,,,,,,,,,,,,,,3,5/14/14 11:15,,5/14/14 11:15,,33.4517,'-112.0750000,'-7,'-6,America/Shiprock,US,AZ,5/19/15 17:52,Newsline May 19,432603c3aa,OTHER,"way too many emails. Would read them if there was one a week, but there are several every day",154766525,277a39a354,
cjensch@hoffcons.com,Conner,Jensch,CONTI,SMD,Hoffman Construction Company,,,Black River Falls,WI,,,,Project Engineer,Central,,,,,,,,,,,,,,,,,,,4,5/14/14 11:15,,5/14/14 11:15,,37.2425,'-121.8350000,'-8,'-7,America/Los_Angeles,US,CA,5/19/15 21:24,Newsline May 19,432603c3aa,,,154769541,a4c2dbbfb3,
Mary.Wayne@fluor.com,Mary,Wayne,PPVI,SMD,"Fluor Enterprises, Inc.",,,,,,,,Strategic Planning,,,,,,,,,,,,,,,,,,,,2,5/14/14 11:15,,5/14/14 11:15,,51.2912,'-0.7531000,0,1,Atlantic/Faroe,UK,HAM,5/19/15 20:00,What They're Saying Part 4,a226f790f2,,,154780005,9f3f60d80e,
nickbaker@anlaan.com,Nick,Baker,CONTC,Svc Mbr - Enrolled Tied,Anlaan Corporation,,,Ferrysburg,MI,,,,,,,,,,,,,,,,,,,,,,,,2,3/19/15 11:52,,3/19/15 11:52,50.241.138.177,,,,,,,,5/19/15 17:52,Newsline May 19,432603c3aa,NORMAL,,165269917,66434e45f1,
Philippe.bisson@cnh.com,Philippe,Bisson,EMANI,SMD,CASE Construction Equipment,,,Racine,WI,,,,,Central,,,,,,,,,,,,,,,,,,,2,5/14/14 11:15,,5/14/14 11:15,,33.6583,'-84.3846000,'-5,'-4,America/Kentucky/Monticello,US,GA,5/20/15 9:19,Campaign Day 9,41fd00ab17,NORMAL,,154782381,99d566d4c1,
SPYancey@pcl.com,Shaun,Yancey,CONTI,SMD,"PCL Civil Constructors, Inc.",,,Denver,CO,,,,"President, US Operation",Western,,,,,,,,,,,,,,,,,,,3,5/14/14 11:15,,5/14/14 11:15,,39.3919,'-104.8590000,'-7,'-6,America/Shiprock,US,CO,5/20/15 9:04,Campaign Day 9,41fd00ab17,,,154785465,6f5b32fd0b,
dan@japohl.com,Dan,Pohl,CONTC,Svc Mbr - Enrolled Tie,"J & A Pohl, Inc.",,,Brookfield,WI,,,,President,Central,,,,,,,,,,,,,,,,,,,2,5/14/14 11:15,,5/14/14 11:15,,43.0825,'-87.8844000,'-5,'-4,America/Toronto,US,WI,5/20/15 16:53,HTF Video Message,e473e1ec08,,,154770357,0b45a2f339,
jeff.dolezal@us.atlascopco.com,Jeff,Dolezal,CONTA,Svc Mbr - Enrolled Tie,ATLAS COPCO CMT USA LLC,,,Hollywood,FL,,,,Area Sales Manager,Southern,,,,,,,,,,,,,,,,,,,4,5/14/14 11:15,,5/14/14 11:15,,26.0168,'-80.1511000,'-5,'-4,America/Nassau,US,FL,5/20/15 18:08,Campaign Day 9,41fd00ab17,NORMAL,,154775465,58e5775ae3,
bob@guymann.com,Bob,Russell,CONTC,Svc Mbr - Enrolled Tie,Guymann Construction of Florida,,,Cape Coral,FL,,,,Vice President,,,,,,,,,,,,,,,,,,,,2,4/23/15 12:02,,4/23/15 12:02,50.241.138.177,38.9127,'-77.0717000,'-5,'-4,America/New_York,US,DC,5/21/15 9:31,June 2 Webinar,448e78e215,NORMAL,,165272917,f27b2190db,
caminc@embarqmail.com,Samuel,Cottle,CONTC,SMP,"Cottle's Asphalt Maintenance, Inc.",,,Everett,PA,,,,President,Northeastern,,,,,,,,,,,,,,,,,,,3,5/14/14 11:15,,5/14/14 11:15,,35.6759,139.77,9,9,Asia/Tokyo,JP,13,5/21/15 18:11,ARTBA Newsline: May 21,791d5938c6,NORMAL,,154768857,6d7e8e00db,
graycoroad@yahoo.com,Sean,Wendel,TODI,KCHA-TOD,Gray County,,,Cimarron,KS,,,,,Central,,,,,,,,,,,,,,,,,,,2,5/14/14 11:15,,5/14/14 11:15,,35.6856,139.784,9,9,Asia/Tokyo,JP,13,5/21/15 18:51,ARTBA Newsline: May 21,791d5938c6,NORMAL,,154773709,ac2b7cc8bf,
robbe@gncconcrete.com,Robbe,Grider,CONTC,Svc Mbr - Enrolled Tie,"GNC CONCRETE PRODUCTS, INC.",,,Catoosa,OK,,,,,Western,,,,,,,,,,,,,,,,,,,2,5/14/14 11:15,,5/14/14 11:15,,36.0549,'-95.7162000,'-6,'-5,America/Indiana/Tell_City,US,OK,5/26/15 16:40,Campaign Day 9,41fd00ab17,OTHER,I get way too many emails from everywhere. Thank you.,154783833,4f3f142c57,
keith@hammersleystone.com,Keith,Hammersley,CONTC,SMP,Hammersley Stone Co.,,,Fitchburg,WI,,,,President,Central,,,,,,,,,,,,,,,,,,,1,5/14/14 11:15,,5/14/14 11:15,,42.9926,'-89.5701000,'-5,'-4,America/Toronto,US,WI,5/28/15 20:55,June 2 Webinar,ae09ecf248,SPAM,,154778033,324b437c33,